// Jest Snapshot v1, https://goo.gl/fbAQLP

exports[`<MovieItem /> should render correctly 1`] = `
<DocumentFragment>
  <li
    class="MovieItem__StyledMovie-sc-12gslsd-0 byAzxU movie undefined"
    tabindex="0"
  >
    <span
      style="box-sizing: border-box; display: inline-block; overflow: hidden; background: none; opacity: 1; border: 0px; margin: 0px; padding: 0px; position: relative; max-width: 100%;"
    >
      <span
        style="box-sizing: border-box; display: block; background: none; opacity: 1; border: 0px; margin: 0px; padding: 0px; max-width: 100%;"
      >
        <img
          alt=""
          aria-hidden="true"
          src="data:image/svg+xml;base64,PHN2ZyB3aWR0aD0iMjY0IiBoZWlnaHQ9IjM5NiIgeG1sbnM9Imh0dHA6Ly93d3cudzMub3JnLzIwMDAvc3ZnIiB2ZXJzaW9uPSIxLjEiLz4="
          style="display: block; max-width: 100%; background: none; opacity: 1; border: 0px; margin: 0px; padding: 0px;"
        />
      </span>
      <img
        alt="Avengers: Endgame poster"
        class="movie__image"
        data-nimg="intrinsic"
        decoding="async"
        src="data:image/gif;base64,R0lGODlhAQABAIAAAAAAAP///yH5BAEAAAAALAAAAAABAAEAAAIBRAA7"
        style="position: absolute; top: 0px; left: 0px; bottom: 0px; right: 0px; box-sizing: border-box; padding: 0px; margin: auto; display: block; width: 0px; height: 0px; min-width: 100%; max-width: 100%; min-height: 100%; max-height: 100%;"
      />
      <noscript />
    </span>
    <div
      class="movie__contents"
    >
      <p
        class="movie__title"
      >
        Avengers: Endgame
      </p>
      <p
        class="movie__release-year"
      >
        2019
      </p>
    </div>
  </li>
</DocumentFragment>
`;
